Análise de Regressão
…
Regressão linear

A regressão linear é um modelo estatístico fundamental que busca descrever a relação linear entre uma variável dependente (Y) e uma variável independente (X). O modelo matemático é representada pela equação: 𝑌 = 𝛽0 + 𝛽1 ⋅𝑋+ ϵ, onde Y é a variável dependente (ou resposta), X é a variável independente (ou preditora), β1 e β0 são os coeficientes de intercepto e inclinação, e ϵ é o termo de erro, que captura a variação não explicada pelo modelo.

## carregando o data frame
estande <- gsheet2tbl("https://docs.google.com/spreadsheets/d/1bq2N19DcZdtax2fQW9OHSGMR0X2__Z9T/edit#gid=401662555")
estande

# A tibble: 72 × 4
     exp  trat bloco nplants
   <dbl> <dbl> <dbl>   <dbl>
 1     1     0     1      66
 2     1     0     2      72
 3     1     0     3      50
 4     1     0     4      27
 5     1     3     1      68
 6     1     3     2      79
 7     1     3     3      31
 8     1     3     4      32
 9     1     6     1      58
10     1     6     2      56
# ℹ 62 more rows
…
