Data Frame
…
data.frame_8

# A tibble: 30 × 5
      Nº País        Área           Habitantes `População.por.km²`
   <int> <chr>       <chr>          <chr>      <chr>              
 1     1 Rússia      17.098.300 km² 144,2 mi   8,4                
 2     2 Canadá      9.984.700 km²  38,9 mi    3,9                
 3     3 China       9.562.900 km²  1.425,7 mi 149,1              
 4     4 USA         9.525.100 km²  333,3 mi   35,0               
 5     5 Brasil      8.515.800 km²  215,3 mi   25,3               
 6     6 Austrália   7.741.200 km²  26,0 mi    3,4                
 7     7 Índia       3.287.300 km²  1.425,8 mi 433,7              
 8     8 Argentina   2.780.400 km²  46,2 mi    16,6               
 9     9 Cazaquistão 2.724.900 km²  19,6 mi    7,2                
10    10 Argélia     2.381.700 km²  44,9 mi    18,9               
# ℹ 20 more rows
…
Criando um subconjunto

## Selecionando os fatores farm, region e cultivar, e a variável resposta sev2
data.frame_9_2<-data.frame_9|>
  select(farm, region, cultivar, sev2)

## Selecionando linhas pelo nível do fator region Oromia, e colunas pelos fatores farm, region e cultivar, e variável resposta sev2
data.frame_9_oromia<-data.frame_9|>
  select(farm, region, cultivar, sev2)|>
  filter(region=="Oromia")

data.frame_9_oromia

# A tibble: 165 × 4
    farm region cultivar  sev2
   <dbl> <chr>  <chr>    <dbl>
 1   286 Oromia Mixture   7.63
 2   287 Oromia Mixture   9.39
 3   288 Oromia Mixture   1.30
 4   289 Oromia Mixture   9.79
 5   290 Oromia Local    18.5 
 6   291 Oromia Mixture  13.2 
 7   292 Oromia Mixture   5.60
 8   293 Oromia Mixture   1.06
 9   294 Oromia Local    17.6 
10   295 Oromia Mixture  15.4 
# ℹ 155 more rows
…
