Estatística Descritiva
…
Tabela de Contingência

cr<-read_csv("https://raw.githubusercontent.com/emdelponte/paper-coffee-rust-Ethiopia/master/data/survey_clean.csv")
cr

# A tibble: 405 × 13
    farm region zone       district      lon   lat altitude cultivar shade    
   <dbl> <chr>  <chr>      <chr>       <dbl> <dbl>    <dbl> <chr>    <chr>    
 1     1 SNNPR  Bench Maji Debub Bench  35.4  6.90     1100 Local    Sun      
 2     2 SNNPR  Bench Maji Debub Bench  35.4  6.90     1342 Mixture  Mid shade
 3     3 SNNPR  Bench Maji Debub Bench  35.4  6.90     1434 Mixture  Mid shade
 4     4 SNNPR  Bench Maji Debub Bench  35.4  6.90     1100 Local    Sun      
 5     5 SNNPR  Bench Maji Debub Bench  35.4  6.90     1400 Local    Sun      
 6     6 SNNPR  Bench Maji Debub Bench  35.4  6.90     1342 Mixture  Mid shade
 7     7 SNNPR  Bench Maji Debub Bench  35.4  6.90     1432 Mixture  Mid shade
 8     8 SNNPR  Bench Maji Debub Bench  35.4  6.90     1100 Local    Sun      
 9     9 SNNPR  Bench Maji Debub Bench  35.4  6.89     1400 Local    Sun      
10    10 SNNPR  Bench Maji Debub Bench  35.4  6.88     1342 Mixture  Mid shade
# ℹ 395 more rows
# ℹ 4 more variables: cropping_system <chr>, farm_management <chr>, inc <dbl>,
#   sev2 <dbl>
…
criação de subconjunto com o de select e filter do pacote dply para seleção de conjunto e filtragem de linhas

df2<-df|>
  select(farm, region, cultivar, sev2)

#filtragem deteminadas linhas da minha coluna
df_oromia<-df|>
  select(farm, region, cultivar, sev2)|>
  filter(region=="Oromia")
df_oromia

# A tibble: 165 × 4
    farm region cultivar  sev2
   <dbl> <chr>  <chr>    <dbl>
 1   286 Oromia Mixture   7.63
 2   287 Oromia Mixture   9.39
 3   288 Oromia Mixture   1.30
 4   289 Oromia Mixture   9.79
 5   290 Oromia Local    18.5 
 6   291 Oromia Mixture  13.2 
 7   292 Oromia Mixture   5.60
 8   293 Oromia Mixture   1.06
 9   294 Oromia Local    17.6 
10   295 Oromia Mixture  15.4 
# ℹ 155 more rows

df_SNNPR<-df|>
  select(farm, region, cultivar, sev2)|>
  filter(region=="SNNPR")
df_SNNPR

# A tibble: 240 × 4
    farm region cultivar  sev2
   <dbl> <chr>  <chr>    <dbl>
 1     1 SNNPR  Local    55.6 
 2     2 SNNPR  Mixture  17.9 
 3     3 SNNPR  Mixture   8.25
 4     4 SNNPR  Local    46.1 
 5     5 SNNPR  Local    12.3 
 6     6 SNNPR  Mixture  19.9 
 7     7 SNNPR  Mixture  11.9 
 8     8 SNNPR  Local    55.6 
 9     9 SNNPR  Local    11.6 
10    10 SNNPR  Mixture  11.4 
# ℹ 230 more rows
…
Desafio 2

Desafio de realizar uma análise exploratória dos dados de notas dos alunos referentes as provas 1 e 2 da disciplina de Análise e observação dos dados, se utilizando do conhecimento já gerado até o presente momento

1 Carregar o data.frame

df <- gsheet2tbl("https://docs.google.com/spreadsheets/d/1bq2N19DcZdtax2fQW9OHSGMR0X2__Z9T/edit#gid=1092065531")
df

# A tibble: 44 × 3
   prova pontos  nota
   <dbl>  <dbl> <dbl>
 1     1     10  71.4
 2     1     13  92.9
 3     1     12  85.7
 4     1      6  42.9
 5     1     14 100  
 6     1     12  85.7
 7     1     14 100  
 8     1      8  57.1
 9     1     14 100  
10     1     10  71.4
# ℹ 34 more rows
…
Análise 2: Através do gráfico de Box plot, expressão gráfica ideal para visualizar e dispersão dos dados, foi possível concluir que em ambas as provas os alunos obtiveram semelhantes resultados, com leve sucesso maior na primeira em relação a segunda prova, o que já era esperado segundo a análise anterior. É possível observar que a mediana das notas foi superior a média em ambas as provas, o que pode vir a mostar uma distribuição não tão assimétrica na curva de Gauss para verificação de homocedacidade. O 3º e 4º quartil foram menores em extensão, mostrando que muitos alunos obtiveram excelentes resultados em mabas as provas. Contudo ainda não se têm muitas informações da tendência das notas.

Gráfico de Histograma

# Filtando os dados das provas 
notas1 <- df %>% 
  select(prova, nota) %>% 
  filter(prova == "1")
notas1

# A tibble: 22 × 2
   prova  nota
   <dbl> <dbl>
 1     1  71.4
 2     1  92.9
 3     1  85.7
 4     1  42.9
 5     1 100  
 6     1  85.7
 7     1 100  
 8     1  57.1
 9     1 100  
10     1  71.4
# ℹ 12 more rows

notas2 <- df %>% 
  select(prova, nota) %>% 
  filter(prova == "2")
notas2

# A tibble: 22 × 2
   prova  nota
   <dbl> <dbl>
 1     2  81.2
 2     2  68.8
 3     2  87.5
 4     2  87.5
 5     2  87.5
 6     2 100  
 7     2 100  
 8     2 100  
 9     2 100  
10     2  43.8
# ℹ 12 more rows
…
